Introdução ao R - 2026.1
…
# df$v1 <- unlab(df[,9])
# df$v2 <- unlab(df[,10])
# df$v3 <- unlab(df[,11])
# df$v4 <- unlab(df[,12])
# df$v5 <- unlab(df[,13])
# 
# glimpse(df)

df6 <- df %>% select (1,2,9:13) %>% pivot_longer(cols = 3:7,               # variáveis a serem unidas em uma só. 
                                                 names_to = "observações", # nome dessa nova variável
                                                 values_to = "valores")    # valores correspondentes à nova variável

df6

# A tibble: 30 × 4
   id    sexo      observações valores
   <chr> <fct>     <chr>         <dbl>
 1 s1    masculino v1                4
 2 s1    masculino v2                2
 3 s1    masculino v3                5
 4 s1    masculino v4                1
 5 s1    masculino v5                3
 6 s2    feminino  v1                2
 7 s2    feminino  v2                1
 8 s2    feminino  v3                3
 9 s2    feminino  v4                5
10 s2    feminino  v5                4
# ℹ 20 more rows

# podemos inserir mais variáveis
# podemos usar uma função para identificar as variáveis que desejamos no formato longo.

df %>% select (1,2,3,4,9:13) %>% pivot_longer(starts_with("v"),           # função para selecionar variáveis
                                              names_to = "observações",   
                                              values_to = "valores")

# A tibble: 30 × 6
   id    sexo      idade escolaridade observações valores
   <chr> <fct>     <dbl> <fct>        <chr>         <dbl>
 1 s1    masculino    25 superior     v1                4
 2 s1    masculino    25 superior     v2                2
 3 s1    masculino    25 superior     v3                5
 4 s1    masculino    25 superior     v4                1
 5 s1    masculino    25 superior     v5                3
 6 s2    feminino     32 médio        v1                2
 7 s2    feminino     32 médio        v2                1
 8 s2    feminino     32 médio        v3                3
 9 s2    feminino     32 médio        v4                5
10 s2    feminino     32 médio        v5                4
# ℹ 20 more rows

# Se houver dados faltantes na variável "valores", podemos eliminar essas observações com o comando values_drop_na

df %>% select (1,2,3,4,9:13) %>% pivot_longer(starts_with("v"), 
                                              names_to = "observações", 
                                              values_to = "valores", 
                                              values_drop_na = TRUE) # função para remover dados faltantes.

# A tibble: 30 × 6
   id    sexo      idade escolaridade observações valores
   <chr> <fct>     <dbl> <fct>        <chr>         <dbl>
 1 s1    masculino    25 superior     v1                4
 2 s1    masculino    25 superior     v2                2
 3 s1    masculino    25 superior     v3                5
 4 s1    masculino    25 superior     v4                1
 5 s1    masculino    25 superior     v5                3
 6 s2    feminino     32 médio        v1                2
 7 s2    feminino     32 médio        v2                1
 8 s2    feminino     32 médio        v3                3
 9 s2    feminino     32 médio        v4                5
10 s2    feminino     32 médio        v5                4
# ℹ 20 more rows
…
